{
  "host": "stomp+ssl://b-95c70935-71e5-4434-b7eb-57f8221d4359-1.mq.us-west-2.amazonaws.com:61614",
  "user": "admin",
  "password": "CiTrJb8e*u6mAoAj",
  "topics": [
    "/topic/mis.BITMEX_PERP_BTC_USD.trade",
    "/topic/mis.BITMEX_PERP_ETH_USD.trade"
  ],
  "durable": true,
  "writer": {
      "type": "firehose",
      "region": "us-west-2",
      "stream_name": "dev",
      "min_record_size": 1,
      "max_record_size": 500000
  }
}
